Change Component Designator: OldDesignator=W? NewDesignator=W2
Change Component Designator: OldDesignator=W? NewDesignator=W3
Change Component Designator: OldDesignator=W? NewDesignator=W4
Added Pin To Net: NetName=NetD2_1 Pin=W4-1
Added Member To Class: ClassName=Toy Car Schematic Member=Component W2 Jumper
Added Member To Class: ClassName=Toy Car Schematic Member=Component W3 Jumper
Added Room: Name=Toy Car Schematic
